\relax 
\providecommand\hyper@newdestlabel[2]{}
\providecommand\HyperFirstAtBeginDocument{\AtBeginDocument}
\HyperFirstAtBeginDocument{\ifx\hyper@anchor\@undefined
\global\let\oldcontentsline\contentsline
\gdef\contentsline#1#2#3#4{\oldcontentsline{#1}{#2}{#3}}
\global\let\oldnewlabel\newlabel
\gdef\newlabel#1#2{\newlabelxx{#1}#2}
\gdef\newlabelxx#1#2#3#4#5#6{\oldnewlabel{#1}{{#2}{#3}}}
\AtEndDocument{\ifx\hyper@anchor\@undefined
\let\contentsline\oldcontentsline
\let\newlabel\oldnewlabel
\fi}
\fi}
\global\let\hyper@last\relax 
\gdef\HyperFirstAtBeginDocument#1{#1}
\providecommand\HyField@AuxAddToFields[1]{}
\providecommand\HyField@AuxAddToCoFields[2]{}
\@writefile{toc}{\contentsline {section}{\tocsection {}{1}{Overview}}{1}{section.1}}
\@writefile{toc}{\contentsline {section}{\tocsection {}{2}{Object}}{2}{section.2}}
\@writefile{toc}{\contentsline {section}{\tocsection {}{3}{Game Contents}}{2}{section.3}}
\@writefile{toc}{\contentsline {section}{\tocsection {}{4}{Set Up}}{2}{section.4}}
\@writefile{toc}{\contentsline {section}{\tocsection {}{5}{Gameplay}}{3}{section.5}}
\@writefile{toc}{\contentsline {subsection}{\tocsubsection {}{5.1}{Election}}{3}{subsection.5.1}}
\@writefile{toc}{\contentsline {subsection}{\tocsubsection {}{5.2}{Appointment Procedure}}{5}{subsection.5.2}}
\@writefile{toc}{\contentsline {subsection}{\tocsubsection {}{5.3}{Executive Action}}{6}{subsection.5.3}}
\@writefile{toc}{\contentsline {subsection}{\tocsubsection {}{5.4}{Presidential Powers}}{6}{subsection.5.4}}
\@writefile{toc}{\contentsline {section}{\tocsection {}{6}{Strategy Notes}}{7}{section.6}}
\newlabel{tocindent-1}{0pt}
\newlabel{tocindent0}{0pt}
\newlabel{tocindent1}{19.4667pt}
\newlabel{tocindent2}{32.18062pt}
\newlabel{tocindent3}{0pt}
\@writefile{toc}{\contentsline {section}{\tocsection {}{7}{Credits \& License}}{8}{section.7}}
\newlabel{CreditsLicense}{{7}{8}{Credits \& License}{section.7}{}}
